{
  "EDITOR_STATE": {
    "allProjectFiles": {
      "9b945947-2bc2-4a96-ab6d-c04558ba197b": {
        "id": "9b945947-2bc2-4a96-ab6d-c04558ba197b",
        "parent": null,
        "name": "indu-dec31.js",
        "type": "JS_LAMBDA",
        "isDirectory": false,
        "children": [],
        "isRemovable": true,
        "filePath": "indu-dec31.js",
        "cursor": {
          "lineNumber": 1,
          "column": 1
        },
        "config": {
          "runtime": "nodejs10.x",
          "handler": "handler",
          "timeout": 60,
          "memory": 128,
          "layers": [],
          "name": "induDec31"
        },
        "triggers": [
          {
            "resourceName": "apiginduuDec31indunfdfdfilqatstany",
            "config": {}
          },
          {
            "resourceName": "cognitoIndunilUserPool",
            "config": {
              "triggerType": "CreateAuthChallenge"
            }
          }
        ],
        "lastUpdated": 1609392437976
      }
    },
    "openFiles": [
      "9b945947-2bc2-4a96-ab6d-c04558ba197b"
    ],
    "currentFileId": "9b945947-2bc2-4a96-ab6d-c04558ba197b",
    "resources": {
      "apiginduuDec31indunfdfdfilqatstany": {
        "name": "apiginduuDec31indunfdfdfilqatstany",
        "type": "API_GATEWAY",
        "config": {
          "apiType": 1,
          "apiMode": 0,
          "apiName": "induu-dec31",
          "endpointType": "EDGE",
          "resourceMode": 0,
          "resourceName": "indunfdfdfil/qa/tst",
          "resourcePath": "/indunfdfdfil/qa/tst",
          "restMethod": "ANY",
          "proxyIntegration": false,
          "enableCORS": false,
          "stageMode": 0,
          "stageName": "test123",
          "mode": 0
        }
      },
      "cognitoIndunilUserPool": {
        "name": "cognitoIndunilUserPool",
        "type": "CognitoIdentityServiceProvider",
        "config": {
          "mode": 1,
          "name": "Indunil-User-Pool",
          "arn": "arn:aws:cognito-idp:us-east-1:318300609668:userpool/us-east-1_WrZwPbTz1",
          "userPool": {
            "Id": "us-east-1_WrZwPbTz1",
            "Name": "Indunil-User-Pool",
            "LambdaConfig": {
              "CustomMessage": "arn:aws:lambda:us-east-1:318300609668:function:testyyyinduuuu",
              "PreAuthentication": "arn:aws:lambda:us-east-1:318300609668:function:samplei"
            },
            "Policies": {
              "PasswordPolicy": {
                "MinimumLength": 8,
                "RequireUppercase": true,
                "RequireLowercase": true,
                "RequireNumbers": true,
                "RequireSymbols": true,
                "TemporaryPasswordValidityDays": 7
              }
            },
            "VerificationMessageTemplate": {
              "DefaultEmailOption": "CONFIRM_WITH_CODE"
            },
            "MfaConfiguration": "OFF",
            "EmailConfiguration": {
              "EmailSendingAccount": "COGNITO_DEFAULT"
            },
            "UserPoolTags": {},
            "AdminCreateUserConfig": {
              "AllowAdminCreateUserOnly": false,
              "UnusedAccountValidityDays": 7
            },
            "SchemaAttributes": [
              {
                "Name": "sub",
                "AttributeDataType": "String",
                "DeveloperOnlyAttribute": false,
                "Mutable": false,
                "Required": true,
                "StringAttributeConstraints": {
                  "MinLength": "1",
                  "MaxLength": "2048"
                }
              },
              {
                "Name": "name",
                "AttributeDataType": "String",
                "DeveloperOnlyAttribute": false,
                "Mutable": true,
                "Required": false,
                "StringAttributeConstraints": {
                  "MinLength": "0",
                  "MaxLength": "2048"
                }
              },
              {
                "Name": "given_name",
                "AttributeDataType": "String",
                "DeveloperOnlyAttribute": false,
                "Mutable": true,
                "Required": false,
                "StringAttributeConstraints": {
                  "MinLength": "0",
                  "MaxLength": "2048"
                }
              },
              {
                "Name": "family_name",
                "AttributeDataType": "String",
                "DeveloperOnlyAttribute": false,
                "Mutable": true,
                "Required": false,
                "StringAttributeConstraints": {
                  "MinLength": "0",
                  "MaxLength": "2048"
                }
              },
              {
                "Name": "middle_name",
                "AttributeDataType": "String",
                "DeveloperOnlyAttribute": false,
                "Mutable": true,
                "Required": false,
                "StringAttributeConstraints": {
                  "MinLength": "0",
                  "MaxLength": "2048"
                }
              },
              {
                "Name": "nickname",
                "AttributeDataType": "String",
                "DeveloperOnlyAttribute": false,
                "Mutable": true,
                "Required": false,
                "StringAttributeConstraints": {
                  "MinLength": "0",
                  "MaxLength": "2048"
                }
              },
              {
                "Name": "preferred_username",
                "AttributeDataType": "String",
                "DeveloperOnlyAttribute": false,
                "Mutable": true,
                "Required": false,
                "StringAttributeConstraints": {
                  "MinLength": "0",
                  "MaxLength": "2048"
                }
              },
              {
                "Name": "profile",
                "AttributeDataType": "String",
                "DeveloperOnlyAttribute": false,
                "Mutable": true,
                "Required": false,
                "StringAttributeConstraints": {
                  "MinLength": "0",
                  "MaxLength": "2048"
                }
              },
              {
                "Name": "picture",
                "AttributeDataType": "String",
                "DeveloperOnlyAttribute": false,
                "Mutable": true,
                "Required": false,
                "StringAttributeConstraints": {
                  "MinLength": "0",
                  "MaxLength": "2048"
                }
              },
              {
                "Name": "website",
                "AttributeDataType": "String",
                "DeveloperOnlyAttribute": false,
                "Mutable": true,
                "Required": false,
                "StringAttributeConstraints": {
                  "MinLength": "0",
                  "MaxLength": "2048"
                }
              },
              {
                "Name": "email",
                "AttributeDataType": "String",
                "DeveloperOnlyAttribute": false,
                "Mutable": true,
                "Required": false,
                "StringAttributeConstraints": {
                  "MinLength": "0",
                  "MaxLength": "2048"
                }
              },
              {
                "Name": "email_verified",
                "AttributeDataType": "Boolean",
                "DeveloperOnlyAttribute": false,
                "Mutable": true,
                "Required": false
              },
              {
                "Name": "gender",
                "AttributeDataType": "String",
                "DeveloperOnlyAttribute": false,
                "Mutable": true,
                "Required": false,
                "StringAttributeConstraints": {
                  "MinLength": "0",
                  "MaxLength": "2048"
                }
              },
              {
                "Name": "birthdate",
                "AttributeDataType": "String",
                "DeveloperOnlyAttribute": false,
                "Mutable": true,
                "Required": false,
                "StringAttributeConstraints": {
                  "MinLength": "10",
                  "MaxLength": "10"
                }
              },
              {
                "Name": "zoneinfo",
                "AttributeDataType": "String",
                "DeveloperOnlyAttribute": false,
                "Mutable": true,
                "Required": false,
                "StringAttributeConstraints": {
                  "MinLength": "0",
                  "MaxLength": "2048"
                }
              },
              {
                "Name": "locale",
                "AttributeDataType": "String",
                "DeveloperOnlyAttribute": false,
                "Mutable": true,
                "Required": false,
                "StringAttributeConstraints": {
                  "MinLength": "0",
                  "MaxLength": "2048"
                }
              },
              {
                "Name": "phone_number",
                "AttributeDataType": "String",
                "DeveloperOnlyAttribute": false,
                "Mutable": true,
                "Required": false,
                "StringAttributeConstraints": {
                  "MinLength": "0",
                  "MaxLength": "2048"
                }
              },
              {
                "Name": "phone_number_verified",
                "AttributeDataType": "Boolean",
                "DeveloperOnlyAttribute": false,
                "Mutable": true,
                "Required": false
              },
              {
                "Name": "address",
                "AttributeDataType": "String",
                "DeveloperOnlyAttribute": false,
                "Mutable": true,
                "Required": false,
                "StringAttributeConstraints": {
                  "MinLength": "0",
                  "MaxLength": "2048"
                }
              },
              {
                "Name": "updated_at",
                "AttributeDataType": "Number",
                "DeveloperOnlyAttribute": false,
                "Mutable": true,
                "Required": false,
                "NumberAttributeConstraints": {
                  "MinValue": "0"
                }
              },
              {
                "Name": "custom:timezone",
                "AttributeDataType": "String",
                "DeveloperOnlyAttribute": false,
                "Mutable": true,
                "Required": false,
                "StringAttributeConstraints": {}
              }
            ]
          }
        }
      },
      "s3inbubuckett": {
        "name": "s3inbubuckett",
        "type": "S3",
        "config": {
          "mode": 1,
          "bucket": {
            "name": "inbubuckett"
          }
        }
      }
    },
    "customTemplate": {
      "syntax": "JSON",
      "overrideDefault": false,
      "dialect": "CloudFormation",
      "definitions": null
    },
    "envVariables": [
      {
        "lambdaId": "all",
        "varKey": "SIGMA_AWS_ACC_ID",
        "varValue": null,
        "shouldPersist": false,
        "displayOnly": false,
        "editable": false
      }
    ],
    "packageJSON": {
      "dependencies": {
        "aws-sdk": {
          "name": "aws-sdk",
          "language": "nodejs",
          "version": "2.817.0",
          "dev": true,
          "notRemovable": false
        }
      }
    }
  },
  "PROJECT_META": {
    "sigmaVersion": "1.5.0",
    "projectName": "indu-dec31",
    "projectDescription": "",
    "projectVersion": "1.0.0",
    "projectRegion": "us-east-1",
    "platform": "AWS",
    "language": "nodejs",
    "platformRegions": {},
    "lastSave": 1609392457625
  },
  "VCS_STATE": {
    "provider": "BitBucket",
    "repo": {
      "name": "indu-dec31",
      "url": "https://bitbucket.org/indunilrajapakse/indu-dec31"
    }
  }
}